{
  "routes": [
    {
      "method": "GET",
      "path": "/pg-sale-reports",
      "handler": "pg-sale-report.find",
      "config": {
        "policies": []
      }
    },
    {
      "method": "GET",
      "path": "/pg-sale-reports/count",
      "handler": "pg-sale-report.count",
      "config": {
        "policies": []
      }
    },
    {
      "method": "GET",
      "path": "/pg-sale-reports/:id",
      "handler": "pg-sale-report.findOne",
      "config": {
        "policies": []
      }
    },
    {
      "method": "POST",
      "path": "/pg-sale-reports",
      "handler": "pg-sale-report.create",
      "config": {
        "policies": []
      }
    },
    {
      "method": "PUT",
      "path": "/pg-sale-reports/:id",
      "handler": "pg-sale-report.update",
      "config": {
        "policies": []
      }
    },
    {
      "method": "DELETE",
      "path": "/pg-sale-reports/:id",
      "handler": "pg-sale-report.delete",
      "config": {
        "policies": []
      }
    }
  ]
}
