{
  "kind": "collectionType",
  "collectionName": "pg_sale_reports",
  "info": {
    "name": "pg-sale-report"
  },
  "options": {
    "increments": true,
    "timestamps": true
  },
  "attributes": {
    "pg_product": {
      "model": "pg-product"
    },
    "reach": {
      "type": "biginteger"
    },
    "buyers": {
      "type": "biginteger"
    },
    "itemCount": {
      "type": "biginteger"
    },
    "actualDisplay": {
      "type": "biginteger"
    },
    "pg_user": {
      "via": "pg_sale_reports",
      "model": "pg-user"
    },
    "pg_outlet": {
      "via": "pg_sale_reports",
      "model": "pg-outlet"
    },
    "pg_checkin": {
      "via": "pg_sale_reports",
      "model": "pg-checkin"
    }
  }
}
