{
  "kind": "collectionType",
  "collectionName": "pg_products",
  "info": {
    "name": "pg-product"
  },
  "options": {
    "increments": true,
    "timestamps": true
  },
  "attributes": {
    "code": {
      "type": "string"
    },
    "brand": {
      "type": "string"
    },
    "name": {
      "type": "string"
    },
    "size": {
      "type": "string"
    },
    "quantity": {
      "type": "biginteger"
    },
    "price": {
      "type": "float"
    },
    "pg_product_group": {
      "model": "pg-product-group",
      "via": "pg_products"
    },
    "sys_code": {
      "type": "string"
    },
    "pg_system_inventories": {
      "via": "pg_product",
      "collection": "pg-system-inventory"
    },
    "pg_promotions": {
      "via": "pg_products",
      "collection": "pg-promotions"
    }
  }
}
