{
  "routes": [
    {
      "method": "GET",
      "path": "/pg-system-inventories",
      "handler": "pg-system-inventory.find",
      "config": {
        "policies": []
      }
    },
    {
      "method": "GET",
      "path": "/pg-system-inventories/count",
      "handler": "pg-system-inventory.count",
      "config": {
        "policies": []
      }
    },
    {
      "method": "GET",
      "path": "/pg-system-inventories/:id",
      "handler": "pg-system-inventory.findOne",
      "config": {
        "policies": []
      }
    },
    {
      "method": "POST",
      "path": "/pg-system-inventories",
      "handler": "pg-system-inventory.create",
      "config": {
        "policies": []
      }
    },
    {
      "method": "PUT",
      "path": "/pg-system-inventories/:id",
      "handler": "pg-system-inventory.update",
      "config": {
        "policies": []
      }
    },
    {
      "method": "DELETE",
      "path": "/pg-system-inventories/:id",
      "handler": "pg-system-inventory.delete",
      "config": {
        "policies": []
      }
    }
  ]
}
